1	HK	Hong Kong	hkhh-core02	202.84.152.61
2	UK	London	ulhc01	202.84.176.67
3	USA	New York	eig-core01	202.40.148.66
4	USA	Newark (NJ)	tnrt05	202.40.148.75
5	USA	Palo Alto	paix02	202.84.251.9
6	USA	San Jose	eqnx03	202.84.251.8
7	USA	Los Angeles	tlot02	202.84.251.138
8	Japan	Tokyo	siko02	202.84.219.8
9	SNG	Singapore	skdi01	202.84.225.194
10	Korea	Seoul	kscc03	202.84.221.14
11	Taiwan	Taipei	tpei03	202.84.225.8
12	Australia	Sydney	sydp01	202.84.219.195
13	Australia	Perth	pthp02	202.84.142.14
14	New Zealand	Auckland	tauc-core01	202.84.219.69
15	India	Mumbai	imnv-core06	202.47.212.16
16	Philippines	Manila	phpn-core02	203.190.64.76
17	Malaysia	Kuala Lumpur	mkla-core01	203.112.254.13
18	Indonesia	Jakarta	jakt-core02	202.47.192.189
19	Thailand	Bangkok	cat8-core03	203.101.129.109
20	Korea	Busan	kblg01	202.84.149.1
21	India	Chennai	chep-core02	202.47.213.16
22	India	Bangalore	ibem02	202.47.214.16
