
Here are the original dependencies for this build. Need to make sure I have
all of these covered in my Maven bulid by actually running the application!

06/09/2016  06:59 PM            62,983 activation-1.1.jar
06/09/2016  06:59 PM           248,639 annogen-0.1.0.jar
06/09/2016  06:59 PM           421,631 axiom-api-1.2.14.jar
06/09/2016  06:59 PM           152,660 axiom-dom-1.2.7.jar
06/09/2016  06:59 PM           170,746 axiom-impl-1.2.14.jar
06/09/2016  06:59 PM         2,302,195 axis2-1.6.2.jar
06/09/2016  06:59 PM           777,530 axis2-adb-1.4.1.jar
06/09/2016  06:59 PM           169,089 axis2-adb-codegen-1.4.1.jar
06/09/2016  06:59 PM            16,736 axis2-ant-plugin-1.4.1.jar
06/09/2016  06:59 PM            66,623 axis2-clustering-1.4.1.jar
06/09/2016  06:59 PM           138,033 axis2-corba-1.4.1.jar
06/09/2016  06:59 PM            72,800 axis2-fastinfoset-1.4.1.jar
06/09/2016  06:59 PM            26,331 axis2-java2wsdl-1.4.1.jar
06/09/2016  06:59 PM            24,680 axis2-jaxbri-1.4.1.jar
06/09/2016  06:59 PM            47,452 axis2-jaxws-api-1.4.1.jar
06/09/2016  06:59 PM            35,283 axis2-jibx-1.4-SNAPSHOT.jar
06/09/2016  06:59 PM            35,681 axis2-jibx-1.4.1.jar
06/09/2016  06:59 PM            16,879 axis2-json-1.4.1.jar
06/09/2016  06:59 PM            14,737 axis2-jws-api-1.4.1.jar
06/09/2016  06:59 PM         1,040,234 axis2-kernel-1.6.1.jar
06/09/2016  06:59 PM           753,725 axis2-metadata-1.4.1.jar
06/09/2016  06:59 PM            10,421 axis2-mtompolicy-1.4.1.jar
06/09/2016  06:59 PM            86,252 axis2-saaj-1.4.1.jar
06/09/2016  06:59 PM            31,136 axis2-saaj-api-1.4.1.jar
06/09/2016  06:59 PM            26,245 axis2-soapmonitor-1.1.1.jar
06/09/2016  06:59 PM            11,482 axis2-spring-1.4.1.jar
06/09/2016  06:59 PM           144,687 axis2-transport-http-1.5.jar
06/09/2016  06:59 PM            10,836 axis2-transport-local-1.5.jar
06/09/2016  06:59 PM            26,876 axis2-xmlbeans-1.4.1.jar
06/09/2016  06:59 PM           331,716 backport-util-concurrent-3.1.jar
06/09/2016  06:59 PM            46,725 commons-codec-1.3.jar
06/09/2016  06:59 PM            53,082 commons-fileupload-1.2.jar
06/09/2016  06:59 PM           305,001 commons-httpclient-3.1.jar
06/09/2016  06:59 PM           109,043 commons-io-1.4.jar
06/09/2016  06:59 PM            60,686 commons-logging-1.1.1.jar
06/09/2016  06:59 PM            12,232 geronimo-annotation_1.0_spec-1.1.jar
06/09/2016  06:59 PM            28,804 geronimo-stax-api_1.0_spec-1.0.1.jar
06/09/2016  06:59 PM           181,041 http-core-4.1.jar
06/09/2016  06:59 PM           168,160 httpcore-4.0-beta1.jar
06/09/2016  06:59 PM           152,058 httpcore-nio-4.0-beta1.jar
06/09/2016  06:59 PM           129,829 jakarta-httpcore-4.0-alpha2.jar
06/09/2016  06:59 PM         1,335,669 jalopy-1.5rc3.jar
06/09/2016  06:59 PM            89,967 jaxb-api-2.1.jar
06/09/2016  06:59 PM           849,481 jaxb-impl-2.1.6.jar
06/09/2016  06:59 PM         3,126,060 jaxb-xjc-2.1.6.jar
06/09/2016  06:59 PM           239,001 jaxen-1.1-beta-10.jar
06/09/2016  06:59 PM           226,915 jaxen-1.1.1.jar
06/09/2016  06:59 PM            54,187 jettison-1.0-RC2.jar
06/09/2016  06:59 PM           331,438 jibx-bind-1.1.5.jar
06/09/2016  06:59 PM           128,550 jibx-run-1.2.1.jar
06/09/2016  06:59 PM           391,834 log4j-1.2.15.jar
06/09/2016  06:59 PM           388,864 mail-1.4.jar
06/09/2016  06:59 PM            34,750 mex-1.4.1.jar
06/09/2016  06:59 PM            70,663 neethi-3.0.1.jar
06/09/2016  06:59 PM         1,546,274 ojdbc14.jar
06/09/2016  06:59 PM            26,083 slf4j-api-1.7.21.jar
06/09/2016  06:59 PM            32,108 soapmonitor-1.4.1.jar
06/09/2016  06:59 PM            26,514 stax-api-1.0.1.jar
06/09/2016  06:59 PM         2,706,236 UcmdbService-test-client.jar
06/09/2016  06:59 PM           211,056 woden-1.0.0M6.jar
06/09/2016  06:59 PM           149,442 woden-api-1.0M8.jar
06/09/2016  06:59 PM           225,594 woden-impl-dom-1.0M8.jar
06/09/2016  06:59 PM           148,429 wsdl4j-1.6.2.jar
06/09/2016  06:59 PM           520,092 wstx-asl-3.2.4.jar
06/09/2016  06:59 PM         2,730,442 xalan-2.7.0.jar
06/09/2016  06:59 PM           724,974 XBeans-packaged.jar
06/09/2016  06:59 PM         1,212,965 xercesImpl-2.8.1.jar
06/09/2016  06:59 PM           194,354 xml-apis-1.3.04.jar
06/09/2016  06:59 PM            84,091 xml-resolver-1.2.jar
06/09/2016  06:59 PM         2,666,695 xmlbeans-2.3.0.jar
06/09/2016  06:59 PM           139,889 XmlSchema-1.4.2.jar

